{
  "Symbol": "GOOG",
  "AssetType": "Common Stock",
  "Name": "Alphabet Inc",
  "Description": "Alphabet Inc. is an American multinational conglomerate headquartered in Mountain View, California. It was created through a restructuring of Google on October 2, 2015, and became the parent company of Google and several former Google subsidiaries. The two co-founders of Google remained as controlling shareholders, board members, and employees at Alphabet. Alphabet is the world's fourth-largest technology company by revenue and one of the world's most valuable companies.",
  "CIK": "1652044",
  "Exchange": "NASDAQ",
  "Currency": "USD",
  "Country": "USA",
  "Sector": "TECHNOLOGY",
  "Industry": "SERVICES-COMPUTER PROGRAMMING, DATA PROCESSING, ETC.",
  "Address": "1600 AMPHITHEATRE PARKWAY, MOUNTAIN VIEW, CA, US",
  "FiscalYearEnd": "December",
  "LatestQuarter": "2021-12-31",
  "MarketCapitalization": "1805040484000",
  "EBITDA": "91144004000",
  "PERatio": "24.32",
  "PEGRatio": "0.95",
  "BookValue": "380.04",
  "DividendPerShare": "0",
  "DividendYield": "0",
  "EPS": "112.2",
  "RevenuePerShareTTM": "385.89",
  "ProfitMargin": "0.295",
  "OperatingMarginTTM": "0.305",
  "ReturnOnAssetsTTM": "0.145",
  "ReturnOnEquityTTM": "0.321",
  "RevenueTTM": "257637007000",
  "GrossProfitTTM": "146698000000",
  "DilutedEPSTTM": "112.2",
  "QuarterlyEarningsGrowthYOY": "0.377",
  "QuarterlyRevenueGrowthYOY": "0.324",
  "AnalystTargetPrice": "3506.11",
  "TrailingPE": "24.32",
  "ForwardPE": "23.7",
  "PriceToSalesRatioTTM": "7.01",
  "PriceToBookRatio": "7.11",
  "EVToRevenue": "6.52",
  "EVToEBITDA": "16.22",
  "Beta": "1.07",
  "52WeekHigh": "3042",
  "52WeekLow": "2002.02",
  "50DayMovingAverage": "2815.61",
  "200DayMovingAverage": "2729.77",
  "SharesOutstanding": "315639000",
  "DividendDate": "None",
  "ExDividendDate": "None"
}